{
  "imports": [
    "bot-commons-brain-export",
    "bot-commons-dad-joke",
    "bot-commons-hangman",
    "bot-commons-poll",
    "bot-commons-random-numbers",
    "bot-commons-random-pic",
    "bot-commons-temperature-convert",
    "bot-commons-consent",
    "bot-commons-utils"
  ]
}
